{
  "data": {
    "64": {
      "id": 64,
      "body": "Et eum provident enim.",
      "status": "published",
      "company_id": 50,
      "created_at": "2023-03-29T23:19:25.957Z",
      "updated_at": "2023-03-29T23:19:25.957Z",
      "featured": false,
      "user": {
        "id": "NvCdCtBkRp27P8p",
        "name": "Nicki Tromp",
        "email": "randy@schoen.co"
      }
    },
    "72": {
      "id": 72,
      "body": "Tenetur illo labore similique.",
      "status": "published",
      "company_id": 50,
      "created_at": "2023-03-29T23:19:25.998Z",
      "updated_at": "2023-03-29T23:19:25.998Z",
      "featured": false,
      "user": {
        "id": "NvCdCtBkRp27P8p",
        "name": "Nicki Tromp",
        "email": "randy@schoen.co"
      }
    },
    "75": {
      "id": 75,
      "body": "Voluptatibus recusandae vitae aliquam.",
      "status": "published",
      "company_id": 50,
      "created_at": "2023-03-29T23:19:26.015Z",
      "updated_at": "2023-03-29T23:19:26.015Z",
      "featured": true,
      "user": {
        "id": "NvCdCtBkRp27P8p",
        "name": "Nicki Tromp",
        "email": "randy@schoen.co"
      }
    },
    "76": {
      "id": 76,
      "body": "Cupiditate deleniti expedita neque.",
      "status": "published",
      "company_id": 50,
      "created_at": "2023-03-29T23:19:26.020Z",
      "updated_at": "2023-04-08T04:26:47.464Z",
      "featured": false,
      "user": {
        "id": "NvCdCtBkRp27P8p",
        "name": "Nicki Tromp",
        "email": "randy@schoen.co"
      }
    },
    "77": {
      "id": 77,
      "body": "Incidunt repudiandae non dolore.",
      "status": "published",
      "company_id": 50,
      "created_at": "2023-03-29T23:19:26.025Z",
      "updated_at": "2023-04-08T04:26:54.377Z",
      "featured": true,
      "user": {
        "id": "NvCdCtBkRp27P8p",
        "name": "Nicki Tromp",
        "email": "randy@schoen.co"
      }
    }
  },
  "ids": ["77", "76", "75", "72", "64"],
  "meta": {
    "vars": {
      "page": "1",
      "items": 5,
      "outset": 0,
      "size": [1, 4, 4, 1],
      "page_param": "page",
      "params": {},
      "fragment": "",
      "link_extra": "",
      "i18n_key": "pagy.item_name",
      "cycle": false,
      "steps": false,
      "items_param": "per_page",
      "max_items": 100,
      "items_extra": true,
      "count": 11
    },
    "count": 11,
    "page": 1,
    "outset": 0,
    "items": 5,
    "last": 3,
    "pages": 3,
    "offset": 0,
    "params": {},
    "from": 1,
    "to": 5,
    "in": 5,
    "prev": null,
    "next": 2
  }
}
