{
  "data": {
    "59": {
      "id": 59,
      "body": "Molestiae qui quia nemo.",
      "status": "published",
      "company_id": 50,
      "created_at": "2023-03-29T23:19:25.933Z",
      "updated_at": "2023-03-29T23:19:25.933Z",
      "featured": false,
      "user": {
        "id": "NvCdCtBkRp27P8p",
        "name": "Nicki Tromp",
        "email": "randy@schoen.co"
      }
    },
    "60": {
      "id": 60,
      "body": "Maiores quae tenetur at.",
      "status": "published",
      "company_id": 50,
      "created_at": "2023-03-29T23:19:25.938Z",
      "updated_at": "2023-03-29T23:19:25.938Z",
      "featured": false,
      "user": {
        "id": "NvCdCtBkRp27P8p",
        "name": "Nicki Tromp",
        "email": "randy@schoen.co"
      }
    },
    "61": {
      "id": 61,
      "body": "Delectus aut consectetur officia.",
      "status": "published",
      "company_id": 50,
      "created_at": "2023-03-29T23:19:25.943Z",
      "updated_at": "2023-03-29T23:19:25.943Z",
      "featured": false,
      "user": {
        "id": "NvCdCtBkRp27P8p",
        "name": "Nicki Tromp",
        "email": "randy@schoen.co"
      }
    },
    "62": {
      "id": 62,
      "body": "Fugiat qui veniam sunt.",
      "status": "published",
      "company_id": 50,
      "created_at": "2023-03-29T23:19:25.948Z",
      "updated_at": "2023-03-29T23:19:25.948Z",
      "featured": false,
      "user": {
        "id": "NvCdCtBkRp27P8p",
        "name": "Nicki Tromp",
        "email": "randy@schoen.co"
      }
    },
    "63": {
      "id": 63,
      "body": "Ut at dolorem odio.",
      "status": "published",
      "company_id": 50,
      "created_at": "2023-03-29T23:19:25.953Z",
      "updated_at": "2023-03-29T23:19:25.953Z",
      "featured": false,
      "user": {
        "id": "NvCdCtBkRp27P8p",
        "name": "Nicki Tromp",
        "email": "randy@schoen.co"
      }
    }
  },
  "ids": ["63", "62", "61", "60", "59"],
  "meta": {
    "vars": {
      "page": "2",
      "items": 5,
      "outset": 0,
      "size": [1, 4, 4, 1],
      "page_param": "page",
      "params": {},
      "fragment": "",
      "link_extra": "",
      "i18n_key": "pagy.item_name",
      "cycle": false,
      "steps": false,
      "items_param": "per_page",
      "max_items": 100,
      "items_extra": true,
      "count": 11
    },
    "count": 11,
    "page": 2,
    "outset": 0,
    "items": 5,
    "last": 3,
    "pages": 3,
    "offset": 5,
    "params": {},
    "from": 6,
    "to": 10,
    "in": 5,
    "prev": 1,
    "next": 3
  }
}
